…
grid_length <- group_by(join, id) %>% #  sum length of all line segments in each cell by cell id
  summarize(length = sum(len))

#grid_length1 <- filter(grid_length, !is.na(length)) # filter out cells without line segments

mutate(grid_length, length = ifelse(is.na(length), 0, length)) # or set length to 0 for cells without lines
```

    ## Simple feature collection with 462 features and 2 fields
    ## Geometry type: POLYGON
    ## Dimension:     XY
    ## Bounding box:  xmin: -77.12 ymin: 38.79 xmax: -76.9 ymax: 39
    ## Geodetic CRS:  WGS 84
    ## # A tibble: 462 × 3
    ##       id length                                                                x
    ##  * <int>  <dbl>                                                    <POLYGON [°]>
    ##  1     1     0  ((-77.12 38.79, -77.11 38.79, -77.11 38.8, -77.12 38.8, -77.12 …
    ##  2     2     0  ((-77.11 38.79, -77.1 38.79, -77.1 38.8, -77.11 38.8, -77.11 38…
    ##  3     3     0  ((-77.1 38.79, -77.09 38.79, -77.09 38.8, -77.1 38.8, -77.1 38.…
    ##  4     4     0  ((-77.09 38.79, -77.08 38.79, -77.08 38.8, -77.09 38.8, -77.09 …
    ##  5     5     0  ((-77.08 38.79, -77.07 38.79, -77.07 38.8, -77.08 38.8, -77.08 …
    ##  6     6     0  ((-77.07 38.79, -77.06 38.79, -77.06 38.8, -77.07 38.8, -77.07 …
    ##  7     7     0  ((-77.06 38.79, -77.05 38.79, -77.05 38.8, -77.06 38.8, -77.06 …
    ##  8     8     0  ((-77.05 38.79, -77.04 38.79, -77.04 38.8, -77.05 38.8, -77.05 …
    ##  9     9   446. ((-77.04 38.79, -77.03 38.79, -77.03 38.8, -77.04 38.8, -77.04 …
    ## 10    10     0  ((-77.03 38.79, -77.02 38.79, -77.02 38.8, -77.03 38.8, -77.03 …
    ## # … with 452 more rows
…
